<?xml version="1.0" encoding="utf-8"?>
<!-- Generator: Adobe Illustrator 15.0.0, SVG Export Plug-In . SVG Version: 6.00 Build 0)  -->
<!DOCTYPE svg PUBLIC "-//W3C//DTD SVG 1.1//EN" "http://www.w3.org/Graphics/SVG/1.1/DTD/svg11.dtd">
<svg version="1.1" id="Layer_1" xmlns="http://www.w3.org/2000/svg" xmlns:xlink="http://www.w3.org/1999/xlink" x="0px" y="0px"
	 width="76px" height="76px" viewBox="0 0 76 76" enable-background="new 0 0 76 76" xml:space="preserve">
<circle fill="none" stroke="#11CD84" stroke-width="2" stroke-linecap="round" stroke-linejoin="round" stroke-miterlimit="10" cx="38" cy="38" r="19.01"/>
<ellipse fill="none" stroke="#11CD84" stroke-width="2" stroke-linecap="round" stroke-linejoin="round" stroke-miterlimit="10" cx="37.955" cy="38" rx="9.211" ry="19.01"/>
<line fill="none" stroke="#11CD84" stroke-width="2" stroke-linecap="round" stroke-linejoin="round" stroke-miterlimit="10" x1="18.99" y1="38" x2="57.009" y2="38"/>
<line fill="none" stroke="#11CD84" stroke-width="2" stroke-linecap="round" stroke-linejoin="round" stroke-miterlimit="10" x1="38" y1="18.99" x2="38" y2="57.01"/>
<path fill="none" stroke="#11CD84" stroke-linecap="round" stroke-linejoin="round" stroke-miterlimit="10" d="M38.001,3
	C18.683,3,3,18.684,3,38.002C3,57.318,18.683,73,38.001,73C57.318,73,73,57.318,73,38.002C73,18.684,57.318,3,38.001,3z"/>
<path fill="none" stroke="#11CD84" stroke-width="2" stroke-linecap="round" stroke-linejoin="round" stroke-miterlimit="10" d="
	M51.586,24.708c-3.453,3.552-8.283,5.758-13.63,5.758c-5.324,0-10.137-2.188-13.587-5.715"/>
<path fill="none" stroke="#11CD84" stroke-width="2" stroke-linecap="round" stroke-linejoin="round" stroke-miterlimit="10" d="
	M24.369,51.267c3.451-3.527,8.264-5.715,13.587-5.715c5.347,0,10.177,2.205,13.63,5.758"/>
</svg>
